<?xml version="1.0" encoding="UTF-8"?>
<svg width="148px" height="24px" viewBox="0 0 148 24" version="1.1" xmlns="http://www.w3.org/2000/svg" xmlns:xlink="http://www.w3.org/1999/xlink">
    <!-- Generator: Sketch 43.2 (39069) - http://www.bohemiancoding.com/sketch -->
    <title>APPLAND</title>
    <desc>Created with Sketch.</desc>
    <defs>
        <linearGradient x1="46.5236843%" y1="0%" x2="46.5236843%" y2="71.7750727%" id="linearGradient-1">
            <stop stop-color="#5387ED" offset="0%"></stop>
            <stop stop-color="#53A0FE" offset="47.5247532%"></stop>
            <stop stop-color="#28407B" offset="100%"></stop>
        </linearGradient>
    </defs>
    <g id="Page-1" stroke="none" stroke-width="1" fill="none" fill-rule="evenodd" font-size="33.9622642" font-family="AppleSDGothicNeo-Bold, Apple SD Gothic Neo" font-weight="bold">
        <text id="APPLAND" fill="url(#linearGradient-1)">
            <tspan x="0" y="25">APPLAND</tspan>
        </text>
    </g>
</svg>